…
There are 134 distinct aisles in the data set.

``` r
aisle_count = 
  instacart %>% 
  select(aisle) %>% 
  distinct()

aisle_count
```

    ## # A tibble: 134 × 1
    ##    aisle                        
    ##    <chr>                        
    ##  1 yogurt                       
    ##  2 other creams cheeses         
    ##  3 fresh vegetables             
    ##  4 canned meat seafood          
    ##  5 fresh fruits                 
    ##  6 packaged cheese              
    ##  7 specialty cheeses            
    ##  8 water seltzer sparkling water
    ##  9 cream                        
    ## 10 packaged vegetables fruits   
    ## # … with 124 more rows
…
